{
  "type": "minecraft:crafting_shaped",
  "pattern": [
    "   ",
    "C C",
    " C "
  ],
  "key": {
    "C": {
      "item": "minecraft:cobblestone",
      "data": 0
    }
  },
  "result": {
    "item": "voidblockmodded:stonebucket",
    "data": 0
  }
}