{
  "type": "minecraft:crafting_shaped",
  "pattern": [
    "CCC",
    " S ",
    " S "
  ],
  "key": {
    "C": {
      "item": "minecraft:cobblestone",
      "data": 0
    },
	"S": {
      "item": "voidblockmodded:shard",
      "data": 0
    }
  },
  "result": {
    "item": "voidblockmodded:hammerstone",
    "data": 0
  }
}