{
  "type": "minecraft:crafting_shaped",
  "pattern": [
    "ddd",
    " d ",
    " d "
  ],
  "key": {
    "d": {
      "item": "minecraft:diamond",
      "data": 0
    }
  },
  "result": {
    "item": "voidblockmodded:hammerdiamond",
    "data": 0
  }
}