{
  "type": "minecraft:crafting_shaped",
  "pattern": [
    "BB",
    "BB"
  ],
  "key": {
    "B": {
      "item": "voidblockmodded:biomassa",
      "data": 0
    }
  },
  "result": {
    "item": "minecraft:stick",
    "data": 0
  }
}