{
  "type": "minecraft:crafting_shaped",
  "pattern": [
    "C",
    "C",
    "S"
  ],
  "key": {
    "C": {
      "item": "minecraft:cobblestone",
      "data": 0
    },
    "S": {
      "item": "voidblockmodded:shard",
      "data": 0
    }
  },
  "result": {
    "item": "minecraft:stone_sword",
    "data": 0
  }
}