{
  "type": "minecraft:crafting_shaped",
  "pattern": [
    "DDD",
    "DDD",
    "DDD"
  ],
  "key": {
    "D": {
      "item": "voidblockmodded:stonedust",
      "data": 0
    }
  },
  "result": {
    "item": "minecraft:cobblestone",
    "data": 0
  }
}