{
	"credit": "Made by MakerTim <blockbench>",
	"textures": {
		"2": "blocks/diamond_block",
		"particle": "blocks/diamond_block"
	},
	"elements": [
		{
			"from": [4, 1, 1],
			"to": [12, 4, 5],
			"faces": {
				"north": {"uv": [1, 5, 9, 8], "texture": "#2"},
				"east": {"uv": [1, 1, 4, 5], "texture": "#2", "rotation": 90},
				"south": {"uv": [1, 5, 9, 8], "texture": "#2"},
				"west": {"uv": [1, 2, 4, 6], "texture": "#2", "rotation": 90},
				"up": {"uv": [1, 1, 9, 5], "texture": "#2"},
				"down": {"uv": [1, 1, 9, 5], "texture": "#2", "rotation": 180}
			}
		},
		{
			"from": [7, 2, 0],
			"to": [9, 3, 13],
			"faces": {
				"north": {"uv": [0, 0, 2, 1], "texture": "#2"},
				"east": {"uv": [3, 1, 16, 2], "texture": "#2"},
				"south": {"uv": [11, 8, 13, 9], "texture": "#2"},
				"west": {"uv": [3, 0, 16, 1], "texture": "#2"},
				"up": {"uv": [0, 0, 2, 13], "texture": "#2"},
				"down": {"uv": [0, 3, 2, 16], "texture": "#2"}
			}
		}
	],
	"display": {
		"thirdperson_righthand": {
			"rotation": [90, 0, 90],
			"translation": [-6, 0.5, 1.5]
		},
		"thirdperson_lefthand": {
			"rotation": [-65, 0, 0],
			"translation": [0, 0, -13]
		},
		"firstperson_righthand": {
			"rotation": [69, 0, 73],
			"translation": [0, 0, 0]
		},
		"firstperson_lefthand": {
			"rotation": [69, 0, 73]
		},
		"head": {
			"rotation": [-65, 0, 0],
			"translation": [0, 0, -13]
		},
		"ground": {
			"scale": [0.75, 0.75, 0.75]
		},
		"fixed": {
			"rotation": [90, 0, 180],
			"translation": [0, 0, -7]
		},
		"gui": {
			"rotation": [100, 10, 180],
			"translation": [0, 0, 0]
		}
	}
}